type='RmtSwitch', key='RmtReal32', numStages=32, numSlices = {'sram':106; 'tcam':16}, depth = {'sram':1000; 'tcam':2000}, width = {'sram':80; 'tcam':40}, inputCrossbarNumSubunits = {'sram':8; 'tcam':8}, inputCrossbarWidthSubunit = {'sram':80; 'tcam':80}, matchTablesPerStage={'sram':8; 'tcam':8}, delays={'match':12; 'action':3; 'successor':1}, actionCrossbarNumBits=1280, unpackableMemTypes = ['tcam'], default = True, readableName = 'Real RMT Switch', matchType={'sram':['exact']; 'tcam':['exact';'lpm';'ternary';'gw';'mapper']}
type='RmtSwitch', key='RmtReal14', numStages=14, numSlices = {'sram':106; 'tcam':16}, depth = {'sram':1000; 'tcam':2000}, width = {'sram':80; 'tcam':40}, inputCrossbarNumSubunits = {'sram':8; 'tcam':8}, inputCrossbarWidthSubunit = {'sram':80; 'tcam':80}, matchTablesPerStage={'sram':8; 'tcam':8}, delays={'match':12; 'action':3; 'successor':1}, actionCrossbarNumBits=1280, unpackableMemTypes = ['tcam'], default = True, readableName = 'Real RMT Switch', matchType={'sram':['exact']; 'tcam':['exact';'lpm';'ternary';'gw';'mapper']}
type='RmtSwitch', key='RmtReal32ExactInSram', numStages=32, numSlices = {'sram':106; 'tcam':16}, depth = {'sram':1000; 'tcam':2000}, width = {'sram':80; 'tcam':40}, inputCrossbarNumSubunits = {'sram':8; 'tcam':8}, inputCrossbarWidthSubunit = {'sram':80; 'tcam':80}, matchTablesPerStage={'sram':8; 'tcam':8}, delays={'match':12; 'action':3; 'successor':1}, actionCrossbarNumBits=1280, unpackableMemTypes = ['tcam'],  default = True, readableName = 'Real RMT Switch w 32 st and exact in SRAM only', matchType={'sram':['exact']; 'tcam':['lpm';'ternary';'gw';'mapper']}
type='FlexpipeSwitch', key='FlexpipeReal', numSlices = {'mapper':[2;0;0;0];'ffu':[0;12;12;0]; 'bst':[0;0;4;0];'hashtable':[0;0;0;4]}, order = [0;1;2;3], maxTablesPerSlice = 4, depth = {'mapper':64; 'ffu':1000;'bst':16000; 'hashtable':16000}, width = {'mapper':48; 'ffu':36;'bst':36; 'hashtable':72}, default = True, readableName = 'Real Flexpipe Switch',  matchType={'sram':['exact']; 'tcam':['lpm';'ternary';'gw';'mapper']}
type='RmtSwitchPaper', key='RmtReal32', numStages=32, numSlices = {'sram':106; 'tcam':16}, depth = {'sram':1000; 'tcam':2000}, width = {'sram':80; 'tcam':40}, inputCrossbarNumSubunits = {'sram':8; 'tcam':8}, inputCrossbarWidthSubunit = {'sram':80; 'tcam':80}, matchTablesPerStage={'sram':8; 'tcam':8}, delays={'match':12; 'action':3; 'successor':1}, actionCrossbarNumBits=1280, unpackableMemTypes = ['tcam'], default = True, readableName = 'Real RMT Switch'
type='RmtSwitchPaper', key='RmtReal32ExactInSram', numStages=32, numSlices = {'sram':106; 'tcam':16}, depth = {'sram':1000; 'tcam':2000}, width = {'sram':80; 'tcam':40}, inputCrossbarNumSubunits = {'sram':8; 'tcam':8}, inputCrossbarWidthSubunit = {'sram':80; 'tcam':80}, matchTablesPerStage={'sram':8; 'tcam':8}, delays={'match':12; 'action':3; 'successor':1}, actionCrossbarNumBits=1280, unpackableMemTypes = ['tcam'], matchType={'sram':['exact']; 'tcam':['lpm';'ternary']}, default = True, readableName = 'Real RMT Switch w 32 st and exact in SRAM only'
type='FlexpipeSwitchPaper', key='FlexpipeReal', numSlices = {'mapper':[2;0;0;0];'ffu':[0;12;12;0]; 'bst':[0;0;4;0];'hashtable':[0;0;0;4]}, order = [0;1;2;3], maxTablesPerSlice = 4, depth = {'mapper':64; 'ffu':1000;'bst':16000; 'hashtable':16000}, width = {'mapper':48; 'ffu':36;'bst':36; 'hashtable':72}, default = True, readableName = 'Real Flexpipe Switch'
